Suite/Test/Step Name,Browser,Description,Start time,End time,Duration,Status
Valider,Chrome 68.0.3440.106,,2018-09-03 23:56:32,2018-09-03 23:57:13,"41,271s",PASSED
,,,,,,
Test Cases/Gestion_Contrats/Validation_Contrat,Chrome 68.0.3440.106,,2018-09-03 23:56:33,2018-09-03 23:57:12,"38,781s",PASSED
Statement - data = com.kms.katalon.core.testdata.TestDataFactory.findTestData(Validation),Chrome 68.0.3440.106,,2018-09-03 23:56:35,2018-09-03 23:56:38,"2,715s",PASSED
Statement - For (def index : (1..data.getRowNumbers())),Chrome 68.0.3440.106,,2018-09-03 23:56:38,2018-09-03 23:57:12,"34,293s",PASSED
