Suite/Test/Step Name,Browser,Description,Start time,End time,Duration,Status
RachatTotal,Chrome 68.0.3440.106,,2018-09-04 00:05:10,2018-09-04 00:05:33,"22,900s",PASSED
,,,,,,
Test Cases/Gestion_Prestations/RachatTotal,Chrome 68.0.3440.106,,2018-09-04 00:05:11,2018-09-04 00:05:32,"21,307s",PASSED
Statement - data = com.kms.katalon.core.testdata.TestDataFactory.findTestData(Rachat),Chrome 68.0.3440.106,,2018-09-04 00:05:12,2018-09-04 00:05:13,"1,683s",PASSED
Statement - For (def index : (1..data.getRowNumbers())),Chrome 68.0.3440.106,,2018-09-04 00:05:13,2018-09-04 00:05:32,"18,634s",PASSED
